{
  "project_info": {
    "project_number": "977292240478",
    "firebase_url": "https://diaryapp-268aa.firebaseio.com",
    "project_id": "diaryapp-268aa",
    "storage_bucket": "diaryapp-268aa.appspot.com"
  },
  "client": [
    {
      "client_info": {
        "mobilesdk_app_id": "1:977292240478:android:e8d745ebbfc6737b",
        "android_client_info": {
          "package_name": "com.project.vickie.diaryapp"
        }
      },
      "oauth_client": [
        {
          "client_id": "977292240478-fn9043ac6fhngf11f1ip3rn2abuqbc99.apps.googleusercontent.com",
          "client_type": 1,
          "android_info": {
            "package_name": "com.project.vickie.diaryapp",
            "certificate_hash": "9d042c32d39522456894b48564165e908b4d79f4"
          }
        },
        {
          "client_id": "977292240478-a9ftrjuu2n2imd3qolb7i9ttaq19kd28.apps.googleusercontent.com",
          "client_type": 3
        }
      ],
      "api_key": [
        {
          "current_key": "AIzaSyBuwUTOY0i9TAYe_lExkAron-U_-xP1dK4"
        }
      ],
      "services": {
        "analytics_service": {
          "status": 1
        },
        "appinvite_service": {
          "status": 2,
          "other_platform_oauth_client": [
            {
              "client_id": "977292240478-a9ftrjuu2n2imd3qolb7i9ttaq19kd28.apps.googleusercontent.com",
              "client_type": 3
            }
          ]
        },
        "ads_service": {
          "status": 2
        }
      }
    }
  ],
  "configuration_version": "1"
}